{
  "code": 200,
  "data": {
    "id": "210049",
    "type": 0,
    "threadId": "R_SO_4_210049",
    "sortType": 99,
    "total": 48116,
    "pageNo": 1,
    "pageSize": 10,
    "cursor": 0,
    "hasMore": true,
    "comments": [
      {
        "id": 4995338,
        "userId": 539085,
        "nickname": "七夜迦罗",
        "avatarUrl": "http://p3.music.126.net/RNclHNRi7xkTKDUoNzilhA==/5798824324955199.jpg",
        "vipType": 11,
        "content": "有些歌估计蔡依林都不敢听。。。",
        "likedCount": 155606,
        "replyCount": 690,
        "time": 1413653076490,
        "timeText": "2014/10/19 01:24:36",
        "ipLocation": "",
        "liked": false,
        "pendingReview": false,
        "parentCommentId": 0
      },
      {
        "id": 5704384,
        "userId": 29580362,
        "nickname": "cyan9826",
        "avatarUrl": "http://p3.music.126.net/9jGam-WR8tXt-MJPYyUwOw==/109951163241173908.jpg",
        "vipType": 0,
        "content": "画面太美我不敢看的出处[奸笑]",
        "likedCount": 83811,
        "replyCount": 204,
        "time": 1415791062303,
        "timeText": "2014/11/12 19:17:42",
        "ipLocation": "",
        "liked": false,
        "pendingReview": false,
        "parentCommentId": 0
      },
      {
        "id": 29707088,
        "userId": 20289406,
        "nickname": "奔雷手敌法师",
        "avatarUrl": "http://p3.music.126.net/WV5ODOZylRLtPoMwbsbOaQ==/3301833421515446.jpg",
        "vipType": 0,
        "content": "还记得Jolin《城堡》专辑的暗语吗？：2410。第二首，第四首，第十首，是周杰伦写的。连起来读：爱死依琳。如今小公举妻女双全，Jolin还是孑然一身。\n请为我转身。[大哭]",
        "likedCount": 74363,
        "replyCount": 273,
        "time": 1438764627397,
        "timeText": "2015/08/05 16:50:27",
        "ipLocation": "",
        "liked": false,
        "pendingReview": false,
        "parentCommentId": 0
      },
      {
        "id": 4929646,
        "userId": 29761916,
        "nickname": "JoyStays",
        "avatarUrl": "http://p4.music.126.net/hiUUhcfqGT0LQQ5elV2byw==/109951171826086707.jpg",
        "vipType": 11,
        "content": "周杰伦要去布拉格拍婚纱照了，可是新娘不是jolin!心碎！",
        "likedCount": 49251,
        "replyCount": 121,
        "time": 1413424854756,
        "timeText": "2014/10/16 10:00:54",
        "ipLocation": "",
        "liked": false,
        "pendingReview": false,
        "parentCommentId": 0
      },
      {
        "id": 5208000,
        "userId": 2056489,
        "nickname": "Gn小瘪三",
        "avatarUrl": "http://p3.music.126.net/8OVYEz4tjm1RbRZRkYpTmA==/109951166606247230.jpg",
        "vipType": 0,
        "content": "Jolin，我要结婚了，有在布拉格广场拍婚纱照……（我呸！！！）",
        "likedCount": 37369,
        "replyCount": 59,
        "time": 1414415267701,
        "timeText": "2014/10/27 21:07:47",
        "ipLocation": "",
        "liked": false,
        "pendingReview": false,
        "parentCommentId": 0
      },
      {
        "id": 67546458,
        "userId": 126296056,
        "nickname": "这昵称长长长长长长了点",
        "avatarUrl": "http://p4.music.126.net/kAYyoDq3QCpF_J5-55Hh2Q==/3265549615512254.jpg",
        "vipType": 0,
        "content": "2004年是神奇的一年，那年有周杰伦的七里香，飞儿乐团的我们的爱，张韶涵的寓言，蔡依林的爱情三十六计，林俊杰的江南，梁静茹的宁夏，五月天的倔强，孙燕姿的我也很想他，王菲的旋木，SHE的波斯猫，王心凌的爱你，陈绮贞的旅行的意义，王力宏的心中的日月……都是青春的记忆……",
        "likedCount": 33502,
        "replyCount": 403,
        "time": 1454481658626,
        "timeText": "2016/02/03 14:40:58",
        "ipLocation": "",
        "liked": false,
        "pendingReview": false,
        "parentCommentId": 0
      },
      {
        "id": 5706740,
        "userId": 6554203,
        "nickname": "昆源阿乐乐",
        "avatarUrl": "http://p4.music.126.net/wPEgniou9DQ0A2qMnIqaRQ==/109951167735372820.jpg",
        "vipType": 11,
        "content": "还记得那年暑假，大概是2004年，写作业之余就用来听歌，当时听江南，听七里香，听说爱你，这些歌带我走进流行音乐，一个字一个字的把布拉格广场的rap词抄下来，一点点的跟着复读机学，十年了，到现在仍然能跟着节拍一个字不落的唱出来。怀念那个夏天，看着奥运会，听着好听的流行歌曲。十年了。",
        "likedCount": 21868,
        "replyCount": 358,
        "time": 1415801360908,
        "timeText": "2014/11/12 22:09:20",
        "ipLocation": "",
        "liked": false,
        "pendingReview": false,
        "parentCommentId": 0
      },
      {
        "id": 58962346,
        "userId": 955231,
        "nickname": "tjy0628",
        "avatarUrl": "http://p3.music.126.net/SA8lszRiZAmKGOkmGI1PwA==/1398578798692246.jpg",
        "vipType": 0,
        "content": "我就站在布拉格黄昏的广场，然而并没有许愿池，方文山这个骗子[惊恐]",
        "likedCount": 20110,
        "replyCount": 106,
        "time": 1451906603213,
        "timeText": "2016/01/04 19:23:23",
        "ipLocation": "",
        "liked": false,
        "pendingReview": false,
        "parentCommentId": 0
      },
      {
        "id": 9587387229,
        "userId": 13647010989,
        "nickname": "仴湸上的公主",
        "avatarUrl": "http://p4.music.126.net/ij1ZiW4ynBOrA5AHjLj7_A==/109951173563976048.jpg",
        "vipType": 11,
        "content": "我是来看大家对歌评价的，不是看你来卖歌的，你要卖Jay的歌你给我滚😡",
        "likedCount": 0,
        "replyCount": 0,
        "time": 1784769044143,
        "timeText": "2026/07/23 09:10:44",
        "ipLocation": "河北",
        "liked": false,
        "pendingReview": false,
        "parentCommentId": 0
      },
      {
        "id": 9587286602,
        "userId": 17200669325,
        "nickname": "寂川_e1Mk",
        "avatarUrl": "http://p3.music.126.net/s4bIwk17c9Rqu-HoRPzJBg==/109951173414430737.jpg",
        "vipType": 11,
        "content": "[认可]",
        "likedCount": 0,
        "replyCount": 0,
        "time": 1784741722981,
        "timeText": "2026/07/23 01:35:22",
        "ipLocation": "湖南",
        "liked": false,
        "pendingReview": false,
        "parentCommentId": 0
      },
      {
        "id": 9586992084,
        "userId": 247107588,
        "nickname": "风陵渡口忆榴莲",
        "avatarUrl": "http://p4.music.126.net/vgTSExjrQJmM5HH5E2_X5Q==/1398578794965214.jpg",
        "vipType": 0,
        "content": "这首歌我听前奏就爱上了",
        "likedCount": 1,
        "replyCount": 0,
        "time": 1784724784429,
        "timeText": "2026/07/22 20:53:04",
        "ipLocation": "北京",
        "liked": false,
        "pendingReview": false,
        "parentCommentId": 0
      },
      {
        "id": 9586949980,
        "userId": 468237519,
        "nickname": "-Dreamcoupie晴初",
        "avatarUrl": "http://p4.music.126.net/39ALVTTmfNbghGRG9PFNWA==/109951165861393144.jpg",
        "vipType": 11,
        "content": "还要何时才可以在网易云能听到jay的歌",
        "likedCount": 0,
        "replyCount": 1,
        "time": 1784720902996,
        "timeText": "2026/07/22 19:48:22",
        "ipLocation": "广东",
        "liked": false,
        "pendingReview": false,
        "parentCommentId": 0
      },
      {
        "id": 9586624453,
        "userId": 13340725377,
        "nickname": "江景_H",
        "avatarUrl": "http://p4.music.126.net/B7F1NlqLSywmn26X5kCU8Q==/109951173164200420.jpg",
        "vipType": 11,
        "content": "太阳之子",
        "likedCount": 0,
        "replyCount": 0,
        "time": 1784690662884,
        "timeText": "2026/07/22 11:24:22",
        "ipLocation": "广西",
        "liked": false,
        "pendingReview": false,
        "parentCommentId": 0
      },
      {
        "id": 9586368771,
        "userId": 12735561201,
        "nickname": "生活缺甜",
        "avatarUrl": "http://p3.music.126.net/tsn0MRaNW2_aKN1GtqcWiA==/109951173607809701.jpg",
        "vipType": 0,
        "content": "我也想要周董全部歌单[哭哭][哭哭]",
        "likedCount": 0,
        "replyCount": 0,
        "time": 1784658450833,
        "timeText": "2026/07/22 02:27:30",
        "ipLocation": "河南",
        "liked": false,
        "pendingReview": false,
        "parentCommentId": 0
      },
      {
        "id": 9585828185,
        "userId": 12994532020,
        "nickname": "云辰sr",
        "avatarUrl": "http://p4.music.126.net/kzIH-pLYCdQX89edKJp5Mw==/109951173611535082.jpg",
        "vipType": 0,
        "content": "布拉格是一个浪漫的城市",
        "likedCount": 0,
        "replyCount": 0,
        "time": 1784624858277,
        "timeText": "2026/07/21 17:07:38",
        "ipLocation": "江西",
        "liked": false,
        "pendingReview": false,
        "parentCommentId": 0
      },
      {
        "id": 9585345963,
        "userId": 13048082722,
        "nickname": "柏试-",
        "avatarUrl": "http://p3.music.126.net/gIssk_3s5TZScVyqjYlgzA==/109951172793469313.jpg",
        "vipType": 0,
        "content": "我想问一下这是真周杰伦本人账号吗",
        "likedCount": 0,
        "replyCount": 0,
        "time": 1784560770024,
        "timeText": "2026/07/20 23:19:30",
        "ipLocation": "河南",
        "liked": false,
        "pendingReview": false,
        "parentCommentId": 0
      },
      {
        "id": 9585291480,
        "userId": 1774743483,
        "nickname": "Smallandromantic",
        "avatarUrl": "http://p4.music.126.net/SVZTUAWkozdtqh1-DkMiPg==/109951170485802835.jpg",
        "vipType": 11,
        "content": "免费给[装可爱][装可爱][装可爱]",
        "likedCount": 0,
        "replyCount": 6,
        "time": 1784555405499,
        "timeText": "2026/07/20 21:50:05",
        "ipLocation": "黑龙江",
        "liked": false,
        "pendingReview": false,
        "parentCommentId": 0
      },
      {
        "id": 9584639165,
        "userId": 9198616019,
        "nickname": "acinc_h",
        "avatarUrl": "http://p4.music.126.net/A9vutv-cs4KvLv93MqTteA==/109951170691346863.jpg",
        "vipType": 11,
        "content": "可以上传周杰伦全部歌",
        "likedCount": 3,
        "replyCount": 9,
        "time": 1784512111128,
        "timeText": "2026/07/20 09:48:31",
        "ipLocation": "山西",
        "liked": false,
        "pendingReview": false,
        "parentCommentId": 0
      }
    ],
    "hotComments": []
  }
}
